EESchema Schematic File Version 4
EELAYER 30 0
EELAYER END
$Descr A4 11693 8268
encoding utf-8
Sheet 1 1
Title "Projet de gestion du chauffage"
Date "2020-11-09"
Rev "1"
Comp ""
Comment1 "Benoît BOUCKAERT"
Comment2 "Version 2"
Comment3 "Schéma général"
Comment4 ""
$EndDescr
$Comp
L Connector_Generic:Conn_01x04 USB01
U 1 1 5FA99F37
P 900 1100
F 0 "USB01" H 818 675 50  0000 C CNN
F 1 "USB Type C connector" H 818 766 50  0000 C CNN
F 2 "" H 900 1100 50  0001 C CNN
F 3 "~" H 900 1100 50  0001 C CNN
	1    900  1100
	-1   0    0    1   
$EndComp
Wire Wire Line
	1100 900  1350 900 
Wire Wire Line
	1350 900  1350 950 
Wire Wire Line
	1100 1200 1200 1200
Wire Wire Line
	1350 1200 1350 1150
NoConn ~ 1100 1000
NoConn ~ 1100 1100
$Comp
L Device:Battery BT01
U 1 1 5FAA7A98
P 2500 1100
F 0 "BT01" H 2608 1146 50  0000 L CNN
F 1 "Battery" H 2608 1055 50  0000 L CNN
F 2 "" V 2500 1160 50  0001 C CNN
F 3 "~" V 2500 1160 50  0001 C CNN
	1    2500 1100
	1    0    0    -1  
$EndComp
Wire Wire Line
	2050 950  2200 950 
Wire Wire Line
	2200 950  2200 850 
Wire Wire Line
	2200 850  2500 850 
Wire Wire Line
	2500 850  2500 900 
Wire Wire Line
	2050 1150 2200 1150
Wire Wire Line
	2200 1150 2200 1350
Wire Wire Line
	2200 1350 2500 1350
Wire Wire Line
	2500 1350 2500 1300
$Comp
L Comps:DCDC Alim01
U 1 1 5FAA6D20
P 1700 1050
F 0 "Alim01" H 1700 1375 50  0000 C CNN
F 1 "DCDC" H 1700 1284 50  0000 C CNN
F 2 "" H 1700 1050 50  0001 C CNN
F 3 "" H 1700 1050 50  0001 C CNN
	1    1700 1050
	1    0    0    -1  
$EndComp
Wire Wire Line
	2500 850  2950 850 
Wire Wire Line
	2950 850  2950 950 
Connection ~ 2500 850 
Wire Wire Line
	2500 1350 2950 1350
Wire Wire Line
	2950 1350 2950 1150
Connection ~ 2500 1350
$Comp
L Comps:Regul5V Reg01
U 1 1 5FAAC034
P 3300 1050
F 0 "Reg01" H 3300 1375 50  0000 C CNN
F 1 "Regul5V" H 3300 1284 50  0000 C CNN
F 2 "" H 3300 1050 50  0001 C CNN
F 3 "" H 3300 1050 50  0001 C CNN
	1    3300 1050
	1    0    0    -1  
$EndComp
$Comp
L power:+5V #PWR?
U 1 1 5FAAD3E9
P 3750 900
F 0 "#PWR?" H 3750 750 50  0001 C CNN
F 1 "+5V" H 3765 1073 50  0000 C CNN
F 2 "" H 3750 900 50  0001 C CNN
F 3 "" H 3750 900 50  0001 C CNN
	1    3750 900 
	1    0    0    -1  
$EndComp
$Comp
L power:GND #PWR?
U 1 1 5FAADD08
P 3750 1200
F 0 "#PWR?" H 3750 950 50  0001 C CNN
F 1 "GND" H 3755 1027 50  0000 C CNN
F 2 "" H 3750 1200 50  0001 C CNN
F 3 "" H 3750 1200 50  0001 C CNN
	1    3750 1200
	1    0    0    -1  
$EndComp
Wire Wire Line
	3650 950  3750 950 
Wire Wire Line
	3750 950  3750 900 
Wire Wire Line
	3650 1150 3750 1150
Wire Wire Line
	3750 1150 3750 1200
$Comp
L power:GND #PWR?
U 1 1 5FAAE74E
P 2500 1450
F 0 "#PWR?" H 2500 1200 50  0001 C CNN
F 1 "GND" H 2505 1277 50  0000 C CNN
F 2 "" H 2500 1450 50  0001 C CNN
F 3 "" H 2500 1450 50  0001 C CNN
	1    2500 1450
	1    0    0    -1  
$EndComp
$Comp
L power:GND #PWR?
U 1 1 5FAAF895
P 1200 1300
F 0 "#PWR?" H 1200 1050 50  0001 C CNN
F 1 "GND" H 1205 1127 50  0000 C CNN
F 2 "" H 1200 1300 50  0001 C CNN
F 3 "" H 1200 1300 50  0001 C CNN
	1    1200 1300
	1    0    0    -1  
$EndComp
Wire Wire Line
	1200 1300 1200 1200
Connection ~ 1200 1200
Wire Wire Line
	1200 1200 1350 1200
Wire Wire Line
	2500 1450 2500 1350
Text GLabel 2650 750  2    50   Input ~ 0
vBat
Wire Wire Line
	2500 850  2500 750 
Wire Wire Line
	2500 750  2650 750 
$Comp
L Comps:DCDC Alim02
U 1 1 5FAB9FAE
P 1700 2250
F 0 "Alim02" H 1700 2575 50  0000 C CNN
F 1 "DCDC" H 1700 2484 50  0000 C CNN
F 2 "" H 1700 2250 50  0001 C CNN
F 3 "" H 1700 2250 50  0001 C CNN
	1    1700 2250
	1    0    0    -1  
$EndComp
$Comp
L power:+5V #PWR?
U 1 1 5FABA42F
P 1200 2100
F 0 "#PWR?" H 1200 1950 50  0001 C CNN
F 1 "+5V" H 1215 2273 50  0000 C CNN
F 2 "" H 1200 2100 50  0001 C CNN
F 3 "" H 1200 2100 50  0001 C CNN
	1    1200 2100
	1    0    0    -1  
$EndComp
$Comp
L power:GND #PWR?
U 1 1 5FABA9DD
P 1200 2400
F 0 "#PWR?" H 1200 2150 50  0001 C CNN
F 1 "GND" H 1205 2227 50  0000 C CNN
F 2 "" H 1200 2400 50  0001 C CNN
F 3 "" H 1200 2400 50  0001 C CNN
	1    1200 2400
	1    0    0    -1  
$EndComp
Wire Wire Line
	1200 2100 1200 2150
Wire Wire Line
	1200 2150 1350 2150
Wire Wire Line
	1200 2400 1200 2350
Wire Wire Line
	1200 2350 1350 2350
$Comp
L Comps:Regul7V Reg02
U 1 1 5FABB7F8
P 2950 2250
F 0 "Reg02" H 2950 2575 50  0000 C CNN
F 1 "Regul7V" H 2950 2484 50  0000 C CNN
F 2 "" H 2950 2250 50  0001 C CNN
F 3 "" H 2950 2250 50  0001 C CNN
	1    2950 2250
	1    0    0    -1  
$EndComp
Wire Wire Line
	2050 2150 2600 2150
Wire Wire Line
	2050 2350 2600 2350
$Comp
L power:GND #PWR?
U 1 1 5FABD29D
P 3450 2400
F 0 "#PWR?" H 3450 2150 50  0001 C CNN
F 1 "GND" H 3455 2227 50  0000 C CNN
F 2 "" H 3450 2400 50  0001 C CNN
F 3 "" H 3450 2400 50  0001 C CNN
	1    3450 2400
	1    0    0    -1  
$EndComp
Wire Wire Line
	3300 2350 3450 2350
Wire Wire Line
	3450 2350 3450 2400
Text GLabel 3450 2100 2    50   Input ~ 0
+7V
Wire Wire Line
	3300 2150 3400 2150
Wire Wire Line
	3400 2150 3400 2100
Wire Wire Line
	3400 2100 3450 2100
$Comp
L MCU_Module:Arduino_Nano_v2.x A1
U 1 1 5FAC0FC3
P 2950 5050
F 0 "A1" H 2950 3961 50  0000 C CNN
F 1 "Arduino_Nano_v2.x" H 2950 3870 50  0000 C CNN
F 2 "Module:Arduino_Nano" H 2950 5050 50  0001 C CIN
F 3 "https://www.arduino.cc/en/uploads/Main/ArduinoNanoManual23.pdf" H 2950 5050 50  0001 C CNN
	1    2950 5050
	1    0    0    -1  
$EndComp
NoConn ~ 2450 4450
NoConn ~ 2450 4550
NoConn ~ 2450 5450
NoConn ~ 2450 5550
NoConn ~ 2450 5650
NoConn ~ 2450 5750
NoConn ~ 3450 5050
NoConn ~ 3450 5150
NoConn ~ 3450 5250
NoConn ~ 3450 5350
NoConn ~ 2950 6050
NoConn ~ 3150 4050
NoConn ~ 3050 4050
NoConn ~ 3450 4450
NoConn ~ 3450 4550
NoConn ~ 3450 4850
$Comp
L power:+5V #PWR?
U 1 1 5FACAD5E
P 2850 3950
F 0 "#PWR?" H 2850 3800 50  0001 C CNN
F 1 "+5V" H 2865 4123 50  0000 C CNN
F 2 "" H 2850 3950 50  0001 C CNN
F 3 "" H 2850 3950 50  0001 C CNN
	1    2850 3950
	1    0    0    -1  
$EndComp
$Comp
L power:GND #PWR?
U 1 1 5FACB5DD
P 3450 6100
F 0 "#PWR?" H 3450 5850 50  0001 C CNN
F 1 "GND" H 3455 5927 50  0000 C CNN
F 2 "" H 3450 6100 50  0001 C CNN
F 3 "" H 3450 6100 50  0001 C CNN
	1    3450 6100
	1    0    0    -1  
$EndComp
Wire Wire Line
	3050 6050 3050 6100
Wire Wire Line
	3050 6100 3450 6100
Text GLabel 3650 5550 2    50   Input ~ 0
SCL
Text GLabel 3650 5650 2    50   Input ~ 0
SDA
Wire Wire Line
	3450 5550 3650 5550
Wire Wire Line
	3650 5650 3450 5650
Text GLabel 3650 5450 2    50   Input ~ 0
vBat
Wire Wire Line
	3450 5450 3650 5450
Text GLabel 3650 5750 2    50   Input ~ 0
vTemp
Wire Wire Line
	3450 5750 3650 5750
Wire Wire Line
	2850 3950 2850 4050
Text GLabel 2150 5350 0    50   Input ~ 0
vLowBat
Text GLabel 2150 5250 0    50   Input ~ 0
vOut
Text GLabel 2150 5150 0    50   Input ~ 0
B5
Text GLabel 2150 5050 0    50   Input ~ 0
B4
Text GLabel 2150 4950 0    50   Input ~ 0
B3
Text GLabel 2150 4850 0    50   Input ~ 0
B2
Text GLabel 2150 4750 0    50   Input ~ 0
B1
Text GLabel 2150 4650 0    50   Input ~ 0
INT
Wire Wire Line
	2150 4650 2450 4650
Wire Wire Line
	2150 4750 2450 4750
Wire Wire Line
	2150 4850 2450 4850
Wire Wire Line
	2150 4950 2450 4950
Wire Wire Line
	2150 5050 2450 5050
Wire Wire Line
	2150 5150 2450 5150
Wire Wire Line
	2150 5250 2450 5250
Wire Wire Line
	2150 5350 2450 5350
$Comp
L Device:R RP1
U 1 1 5FADC3D4
P 4850 1450
F 0 "RP1" H 4920 1496 50  0000 L CNN
F 1 "1k" H 4920 1405 50  0000 L CNN
F 2 "" V 4780 1450 50  0001 C CNN
F 3 "~" H 4850 1450 50  0001 C CNN
	1    4850 1450
	1    0    0    -1  
$EndComp
$Comp
L Sensor_Temperature:PT1000 TH1
U 1 1 5FADD3CF
P 4850 1950
F 0 "TH1" H 4950 2000 50  0000 L CNN
F 1 "PT1000" H 4950 1900 50  0000 L CNN
F 2 "" H 4850 2000 50  0001 C CNN
F 3 "https://www.heraeus.com/media/media/group/doc_group/products_1/hst/sot_to/de_15/to_92_d.pdf" H 4850 2000 50  0001 C CNN
	1    4850 1950
	1    0    0    -1  
$EndComp
Wire Wire Line
	4850 1300 4850 1200
Wire Wire Line
	4850 2100 4850 2200
$Comp
L power:+5V #PWR?
U 1 1 5FAF156B
P 4850 1200
F 0 "#PWR?" H 4850 1050 50  0001 C CNN
F 1 "+5V" H 4865 1373 50  0000 C CNN
F 2 "" H 4850 1200 50  0001 C CNN
F 3 "" H 4850 1200 50  0001 C CNN
	1    4850 1200
	1    0    0    -1  
$EndComp
$Comp
L power:GND #PWR?
U 1 1 5FAF1F1D
P 4850 2200
F 0 "#PWR?" H 4850 1950 50  0001 C CNN
F 1 "GND" H 4855 2027 50  0000 C CNN
F 2 "" H 4850 2200 50  0001 C CNN
F 3 "" H 4850 2200 50  0001 C CNN
	1    4850 2200
	1    0    0    -1  
$EndComp
Wire Wire Line
	4850 1600 4850 1700
Text GLabel 4950 1700 2    50   Input ~ 0
vTemp
Wire Wire Line
	4950 1700 4850 1700
Connection ~ 4850 1700
Wire Wire Line
	4850 1700 4850 1800
Text GLabel 2100 3300 0    50   Input ~ 0
SCL
Text GLabel 2100 2950 0    50   Input ~ 0
SDA
$Comp
L Device:R RI1
U 1 1 5FAFEF88
P 2400 3300
F 0 "RI1" V 2193 3300 50  0000 C CNN
F 1 "1,5k" V 2284 3300 50  0000 C CNN
F 2 "" V 2330 3300 50  0001 C CNN
F 3 "~" H 2400 3300 50  0001 C CNN
	1    2400 3300
	0    1    1    0   
$EndComp
$Comp
L Device:R RI2
U 1 1 5FAFF58D
P 2400 2950
F 0 "RI2" V 2607 2950 50  0000 C CNN
F 1 "1,5k" V 2516 2950 50  0000 C CNN
F 2 "" V 2330 2950 50  0001 C CNN
F 3 "~" H 2400 2950 50  0001 C CNN
	1    2400 2950
	0    -1   -1   0   
$EndComp
$Comp
L power:+5V #PWR?
U 1 1 5FAFFAAB
P 2750 3300
F 0 "#PWR?" H 2750 3150 50  0001 C CNN
F 1 "+5V" V 2765 3428 50  0000 L CNN
F 2 "" H 2750 3300 50  0001 C CNN
F 3 "" H 2750 3300 50  0001 C CNN
	1    2750 3300
	0    1    1    0   
$EndComp
$Comp
L power:+5V #PWR?
U 1 1 5FB00A48
P 2750 2950
F 0 "#PWR?" H 2750 2800 50  0001 C CNN
F 1 "+5V" V 2765 3078 50  0000 L CNN
F 2 "" H 2750 2950 50  0001 C CNN
F 3 "" H 2750 2950 50  0001 C CNN
	1    2750 2950
	0    1    1    0   
$EndComp
Wire Wire Line
	2100 3300 2250 3300
Wire Wire Line
	2100 2950 2250 2950
Wire Wire Line
	2550 2950 2750 2950
Wire Wire Line
	2550 3300 2750 3300
Text GLabel 5200 2950 0    50   Input ~ 0
vLowBat
$Comp
L Device:R RL1
U 1 1 5FB12C48
P 5550 2950
F 0 "RL1" V 5343 2950 50  0000 C CNN
F 1 "320" V 5434 2950 50  0000 C CNN
F 2 "" V 5480 2950 50  0001 C CNN
F 3 "~" H 5550 2950 50  0001 C CNN
	1    5550 2950
	0    1    1    0   
$EndComp
$Comp
L Device:LED D1
U 1 1 5FB1371D
P 6050 2950
F 0 "D1" H 6043 2695 50  0000 C CNN
F 1 "LED" H 6043 2786 50  0000 C CNN
F 2 "" H 6050 2950 50  0001 C CNN
F 3 "~" H 6050 2950 50  0001 C CNN
	1    6050 2950
	-1   0    0    1   
$EndComp
$Comp
L power:GND #PWR?
U 1 1 5FB1410D
P 6500 2950
F 0 "#PWR?" H 6500 2700 50  0001 C CNN
F 1 "GND" V 6505 2822 50  0000 R CNN
F 2 "" H 6500 2950 50  0001 C CNN
F 3 "" H 6500 2950 50  0001 C CNN
	1    6500 2950
	0    -1   -1   0   
$EndComp
Wire Wire Line
	5200 2950 5400 2950
Wire Wire Line
	5700 2950 5900 2950
Wire Wire Line
	6200 2950 6500 2950
Text GLabel 5550 850  1    50   Input ~ 0
vOut
$Comp
L Device:R RO1
U 1 1 5FB1BC2D
P 5550 1100
F 0 "RO1" H 5480 1054 50  0000 R CNN
F 1 "200k" H 5480 1145 50  0000 R CNN
F 2 "" V 5480 1100 50  0001 C CNN
F 3 "~" H 5550 1100 50  0001 C CNN
	1    5550 1100
	-1   0    0    1   
$EndComp
$Comp
L Transistor_BJT:PN2222A Q?
U 1 1 5FB1CCE5
P 5900 1400
F 0 "Q?" H 6090 1446 50  0000 L CNN
F 1 "PN2222A" H 6090 1355 50  0000 L CNN
F 2 "Package_TO_SOT_THT:TO-92_Inline" H 6100 1325 50  0001 L CIN
F 3 "http://www.fairchildsemi.com/ds/PN/PN2222A.pdf" H 5900 1400 50  0001 L CNN
	1    5900 1400
	1    0    0    -1  
$EndComp
$Comp
L Device:R RO2
U 1 1 5FB1D280
P 6000 1900
F 0 "RO2" H 5930 1854 50  0000 R CNN
F 1 "2,7k" H 5930 1945 50  0000 R CNN
F 2 "" V 5930 1900 50  0001 C CNN
F 3 "~" H 6000 1900 50  0001 C CNN
	1    6000 1900
	-1   0    0    1   
$EndComp
$Comp
L Connector:Screw_Terminal_01x02 J?
U 1 1 5FB1E417
P 6750 1650
F 0 "J?" H 6830 1642 50  0000 L CNN
F 1 "Screw_Terminal_01x02" H 6830 1551 50  0000 L CNN
F 2 "" H 6750 1650 50  0001 C CNN
F 3 "~" H 6750 1650 50  0001 C CNN
	1    6750 1650
	1    0    0    -1  
$EndComp
Wire Wire Line
	6000 1600 6000 1750
$Comp
L power:GND #PWR?
U 1 1 5FB255E4
P 6000 2200
F 0 "#PWR?" H 6000 1950 50  0001 C CNN
F 1 "GND" H 6005 2027 50  0000 C CNN
F 2 "" H 6000 2200 50  0001 C CNN
F 3 "" H 6000 2200 50  0001 C CNN
	1    6000 2200
	1    0    0    -1  
$EndComp
Wire Wire Line
	6000 2050 6000 2150
Wire Wire Line
	5550 850  5550 950 
Wire Wire Line
	5550 1250 5550 1400
Wire Wire Line
	5550 1400 5700 1400
Wire Wire Line
	6000 1200 6000 1100
Wire Wire Line
	6000 1100 6550 1100
Wire Wire Line
	6550 1100 6550 1650
Wire Wire Line
	6000 2150 6550 2150
Wire Wire Line
	6550 2150 6550 1750
Connection ~ 6000 2150
Wire Wire Line
	6000 2150 6000 2200
Text GLabel 5000 3800 0    50   Input ~ 0
B1
$Comp
L Device:R RB1
U 1 1 5FB7F838
P 5250 4050
F 0 "RB1" H 5180 4004 50  0000 R CNN
F 1 "5k" H 5180 4095 50  0000 R CNN
F 2 "" V 5180 4050 50  0001 C CNN
F 3 "~" H 5250 4050 50  0001 C CNN
	1    5250 4050
	-1   0    0    1   
$EndComp
$Comp
L Switch:SW_Push SW1
U 1 1 5FB81E48
P 5700 3800
F 0 "SW1" H 5700 4085 50  0000 C CNN
F 1 "SW_Push" H 5700 3994 50  0000 C CNN
F 2 "" H 5700 4000 50  0001 C CNN
F 3 "~" H 5700 4000 50  0001 C CNN
	1    5700 3800
	1    0    0    -1  
$EndComp
Wire Wire Line
	5000 3800 5250 3800
Wire Wire Line
	5250 3900 5250 3800
Connection ~ 5250 3800
Wire Wire Line
	5250 3800 5500 3800
$Comp
L power:GND #PWR?
U 1 1 5FB876BB
P 5250 4300
F 0 "#PWR?" H 5250 4050 50  0001 C CNN
F 1 "GND" H 5255 4127 50  0000 C CNN
F 2 "" H 5250 4300 50  0001 C CNN
F 3 "" H 5250 4300 50  0001 C CNN
	1    5250 4300
	1    0    0    -1  
$EndComp
Wire Wire Line
	5250 4200 5250 4300
$Comp
L power:+5V #PWR?
U 1 1 5FB892B4
P 6050 3800
F 0 "#PWR?" H 6050 3650 50  0001 C CNN
F 1 "+5V" V 6065 3928 50  0000 L CNN
F 2 "" H 6050 3800 50  0001 C CNN
F 3 "" H 6050 3800 50  0001 C CNN
	1    6050 3800
	0    1    1    0   
$EndComp
Wire Wire Line
	5900 3800 6050 3800
Text GLabel 5000 4800 0    50   Input ~ 0
B2
$Comp
L Device:R RB2
U 1 1 5FBA9BFF
P 5250 5050
F 0 "RB2" H 5180 5004 50  0000 R CNN
F 1 "5k" H 5180 5095 50  0000 R CNN
F 2 "" V 5180 5050 50  0001 C CNN
F 3 "~" H 5250 5050 50  0001 C CNN
	1    5250 5050
	-1   0    0    1   
$EndComp
$Comp
L Switch:SW_Push SW2
U 1 1 5FBA9C05
P 5700 4800
F 0 "SW2" H 5700 5085 50  0000 C CNN
F 1 "SW_Push" H 5700 4994 50  0000 C CNN
F 2 "" H 5700 5000 50  0001 C CNN
F 3 "~" H 5700 5000 50  0001 C CNN
	1    5700 4800
	1    0    0    -1  
$EndComp
Wire Wire Line
	5000 4800 5250 4800
Wire Wire Line
	5250 4900 5250 4800
Connection ~ 5250 4800
Wire Wire Line
	5250 4800 5500 4800
$Comp
L power:GND #PWR?
U 1 1 5FBA9C0F
P 5250 5300
F 0 "#PWR?" H 5250 5050 50  0001 C CNN
F 1 "GND" H 5255 5127 50  0000 C CNN
F 2 "" H 5250 5300 50  0001 C CNN
F 3 "" H 5250 5300 50  0001 C CNN
	1    5250 5300
	1    0    0    -1  
$EndComp
Wire Wire Line
	5250 5200 5250 5300
$Comp
L power:+5V #PWR?
U 1 1 5FBA9C16
P 6050 4800
F 0 "#PWR?" H 6050 4650 50  0001 C CNN
F 1 "+5V" V 6065 4928 50  0000 L CNN
F 2 "" H 6050 4800 50  0001 C CNN
F 3 "" H 6050 4800 50  0001 C CNN
	1    6050 4800
	0    1    1    0   
$EndComp
Wire Wire Line
	5900 4800 6050 4800
Text GLabel 5000 5800 0    50   Input ~ 0
B3
$Comp
L Device:R RB3
U 1 1 5FBADAFD
P 5250 6050
F 0 "RB3" H 5180 6004 50  0000 R CNN
F 1 "5k" H 5180 6095 50  0000 R CNN
F 2 "" V 5180 6050 50  0001 C CNN
F 3 "~" H 5250 6050 50  0001 C CNN
	1    5250 6050
	-1   0    0    1   
$EndComp
$Comp
L Switch:SW_Push SW3
U 1 1 5FBADB03
P 5700 5800
F 0 "SW3" H 5700 6085 50  0000 C CNN
F 1 "SW_Push" H 5700 5994 50  0000 C CNN
F 2 "" H 5700 6000 50  0001 C CNN
F 3 "~" H 5700 6000 50  0001 C CNN
	1    5700 5800
	1    0    0    -1  
$EndComp
Wire Wire Line
	5000 5800 5250 5800
Wire Wire Line
	5250 5900 5250 5800
Connection ~ 5250 5800
Wire Wire Line
	5250 5800 5500 5800
$Comp
L power:GND #PWR?
U 1 1 5FBADB0D
P 5250 6300
F 0 "#PWR?" H 5250 6050 50  0001 C CNN
F 1 "GND" H 5255 6127 50  0000 C CNN
F 2 "" H 5250 6300 50  0001 C CNN
F 3 "" H 5250 6300 50  0001 C CNN
	1    5250 6300
	1    0    0    -1  
$EndComp
Wire Wire Line
	5250 6200 5250 6300
$Comp
L power:+5V #PWR?
U 1 1 5FBADB14
P 6050 5800
F 0 "#PWR?" H 6050 5650 50  0001 C CNN
F 1 "+5V" V 6065 5928 50  0000 L CNN
F 2 "" H 6050 5800 50  0001 C CNN
F 3 "" H 6050 5800 50  0001 C CNN
	1    6050 5800
	0    1    1    0   
$EndComp
Wire Wire Line
	5900 5800 6050 5800
Text GLabel 7000 3800 0    50   Input ~ 0
B4
$Comp
L Device:R RB4
U 1 1 5FBCE4D7
P 7250 4050
F 0 "RB4" H 7180 4004 50  0000 R CNN
F 1 "5k" H 7180 4095 50  0000 R CNN
F 2 "" V 7180 4050 50  0001 C CNN
F 3 "~" H 7250 4050 50  0001 C CNN
	1    7250 4050
	-1   0    0    1   
$EndComp
$Comp
L Switch:SW_Push SW4
U 1 1 5FBCE4DD
P 7700 3800
F 0 "SW4" H 7700 4085 50  0000 C CNN
F 1 "SW_Push" H 7700 3994 50  0000 C CNN
F 2 "" H 7700 4000 50  0001 C CNN
F 3 "~" H 7700 4000 50  0001 C CNN
	1    7700 3800
	1    0    0    -1  
$EndComp
Wire Wire Line
	7000 3800 7250 3800
Wire Wire Line
	7250 3900 7250 3800
Connection ~ 7250 3800
Wire Wire Line
	7250 3800 7500 3800
$Comp
L power:GND #PWR?
U 1 1 5FBCE4E7
P 7250 4300
F 0 "#PWR?" H 7250 4050 50  0001 C CNN
F 1 "GND" H 7255 4127 50  0000 C CNN
F 2 "" H 7250 4300 50  0001 C CNN
F 3 "" H 7250 4300 50  0001 C CNN
	1    7250 4300
	1    0    0    -1  
$EndComp
Wire Wire Line
	7250 4200 7250 4300
$Comp
L power:+5V #PWR?
U 1 1 5FBCE4EE
P 8050 3800
F 0 "#PWR?" H 8050 3650 50  0001 C CNN
F 1 "+5V" V 8065 3928 50  0000 L CNN
F 2 "" H 8050 3800 50  0001 C CNN
F 3 "" H 8050 3800 50  0001 C CNN
	1    8050 3800
	0    1    1    0   
$EndComp
Wire Wire Line
	7900 3800 8050 3800
Text GLabel 7000 4800 0    50   Input ~ 0
B5
$Comp
L Device:R RB5
U 1 1 5FBCE4F6
P 7250 5050
F 0 "RB5" H 7180 5004 50  0000 R CNN
F 1 "5k" H 7180 5095 50  0000 R CNN
F 2 "" V 7180 5050 50  0001 C CNN
F 3 "~" H 7250 5050 50  0001 C CNN
	1    7250 5050
	-1   0    0    1   
$EndComp
$Comp
L Switch:SW_Push SW5
U 1 1 5FBCE4FC
P 7700 4800
F 0 "SW5" H 7700 5085 50  0000 C CNN
F 1 "SW_Push" H 7700 4994 50  0000 C CNN
F 2 "" H 7700 5000 50  0001 C CNN
F 3 "~" H 7700 5000 50  0001 C CNN
	1    7700 4800
	1    0    0    -1  
$EndComp
Wire Wire Line
	7000 4800 7250 4800
Wire Wire Line
	7250 4900 7250 4800
Connection ~ 7250 4800
Wire Wire Line
	7250 4800 7500 4800
$Comp
L power:GND #PWR?
U 1 1 5FBCE506
P 7250 5300
F 0 "#PWR?" H 7250 5050 50  0001 C CNN
F 1 "GND" H 7255 5127 50  0000 C CNN
F 2 "" H 7250 5300 50  0001 C CNN
F 3 "" H 7250 5300 50  0001 C CNN
	1    7250 5300
	1    0    0    -1  
$EndComp
Wire Wire Line
	7250 5200 7250 5300
$Comp
L power:+5V #PWR?
U 1 1 5FBCE50D
P 8050 4800
F 0 "#PWR?" H 8050 4650 50  0001 C CNN
F 1 "+5V" V 8065 4928 50  0000 L CNN
F 2 "" H 8050 4800 50  0001 C CNN
F 3 "" H 8050 4800 50  0001 C CNN
	1    8050 4800
	0    1    1    0   
$EndComp
Wire Wire Line
	7900 4800 8050 4800
Text GLabel 10300 4550 2    50   Input ~ 0
INT
Text GLabel 9300 5150 0    50   Input ~ 0
B5
Text GLabel 9300 4850 0    50   Input ~ 0
B4
Text GLabel 9300 4550 0    50   Input ~ 0
B3
Text GLabel 9300 4250 0    50   Input ~ 0
B2
Text GLabel 9300 3950 0    50   Input ~ 0
B1
$Comp
L Device:D D1
U 1 1 5FBEECD7
P 9600 3950
F 0 "D1" H 9600 4050 50  0000 C CNN
F 1 "D" H 9600 3850 50  0000 C CNN
F 2 "" H 9600 3950 50  0001 C CNN
F 3 "~" H 9600 3950 50  0001 C CNN
	1    9600 3950
	-1   0    0    1   
$EndComp
$Comp
L Device:D D2
U 1 1 5FBEF863
P 9600 4250
F 0 "D2" H 9600 4350 50  0000 C CNN
F 1 "D" H 9600 4150 50  0000 C CNN
F 2 "" H 9600 4250 50  0001 C CNN
F 3 "~" H 9600 4250 50  0001 C CNN
	1    9600 4250
	-1   0    0    1   
$EndComp
$Comp
L Device:D D3
U 1 1 5FBEFA72
P 9600 4550
F 0 "D3" H 9600 4650 50  0000 C CNN
F 1 "D" H 9600 4450 50  0000 C CNN
F 2 "" H 9600 4550 50  0001 C CNN
F 3 "~" H 9600 4550 50  0001 C CNN
	1    9600 4550
	-1   0    0    1   
$EndComp
$Comp
L Device:D D4
U 1 1 5FBEFDA9
P 9600 4850
F 0 "D4" H 9600 4950 50  0000 C CNN
F 1 "D" H 9600 4750 50  0000 C CNN
F 2 "" H 9600 4850 50  0001 C CNN
F 3 "~" H 9600 4850 50  0001 C CNN
	1    9600 4850
	-1   0    0    1   
$EndComp
$Comp
L Device:D D5
U 1 1 5FBEFFE2
P 9600 5150
F 0 "D5" H 9600 5250 50  0000 C CNN
F 1 "D" H 9600 5050 50  0000 C CNN
F 2 "" H 9600 5150 50  0001 C CNN
F 3 "~" H 9600 5150 50  0001 C CNN
	1    9600 5150
	-1   0    0    1   
$EndComp
Wire Wire Line
	9300 3950 9450 3950
Wire Wire Line
	9450 4250 9300 4250
Wire Wire Line
	9300 4550 9450 4550
Wire Wire Line
	9450 4850 9300 4850
Wire Wire Line
	9300 5150 9450 5150
Wire Wire Line
	9750 3950 9950 3950
Wire Wire Line
	9950 5150 9750 5150
Wire Wire Line
	9750 4850 9950 4850
Wire Wire Line
	9750 4250 9950 4250
Wire Wire Line
	9750 4550 9950 4550
Wire Wire Line
	9950 3950 9950 4250
Connection ~ 9950 4250
Wire Wire Line
	9950 4250 9950 4550
Connection ~ 9950 4550
Wire Wire Line
	9950 4550 10150 4550
Wire Wire Line
	9950 4550 9950 4850
Wire Wire Line
	9950 4850 9950 5150
Connection ~ 9950 4850
$Comp
L Device:R RB6
U 1 1 5FC381B2
P 10150 5400
F 0 "RB6" H 10080 5354 50  0000 R CNN
F 1 "5k" H 10080 5445 50  0000 R CNN
F 2 "" V 10080 5400 50  0001 C CNN
F 3 "~" H 10150 5400 50  0001 C CNN
	1    10150 5400
	-1   0    0    1   
$EndComp
$Comp
L power:GND #PWR?
U 1 1 5FC390C8
P 10150 5700
F 0 "#PWR?" H 10150 5450 50  0001 C CNN
F 1 "GND" H 10155 5527 50  0000 C CNN
F 2 "" H 10150 5700 50  0001 C CNN
F 3 "" H 10150 5700 50  0001 C CNN
	1    10150 5700
	1    0    0    -1  
$EndComp
Wire Wire Line
	10150 5700 10150 5550
Wire Wire Line
	10150 5250 10150 4550
Connection ~ 10150 4550
Wire Wire Line
	10150 4550 10300 4550
$Comp
L Timer_RTC:DS3231M RTC
U 1 1 5FC42E7B
P 9750 1400
F 0 "RTC" H 9950 1050 50  0000 C CNN
F 1 "DS3231M" H 10050 950 50  0000 C CNN
F 2 "Package_SO:SOIC-16W_7.5x10.3mm_P1.27mm" H 9750 800 50  0001 C CNN
F 3 "http://datasheets.maximintegrated.com/en/ds/DS3231.pdf" H 10020 1450 50  0001 C CNN
	1    9750 1400
	1    0    0    -1  
$EndComp
NoConn ~ 10250 1200
NoConn ~ 10250 1500
NoConn ~ 9250 1600
NoConn ~ 9750 1000
$Comp
L power:GND #PWR?
U 1 1 5FC5CA5A
P 9750 1900
F 0 "#PWR?" H 9750 1650 50  0001 C CNN
F 1 "GND" H 9755 1727 50  0000 C CNN
F 2 "" H 9750 1900 50  0001 C CNN
F 3 "" H 9750 1900 50  0001 C CNN
	1    9750 1900
	1    0    0    -1  
$EndComp
Wire Wire Line
	9750 1800 9750 1900
Text GLabel 9150 1200 0    50   Input ~ 0
SCL
Text GLabel 9150 1300 0    50   Input ~ 0
SDA
Wire Wire Line
	9150 1200 9250 1200
Wire Wire Line
	9150 1300 9250 1300
$Comp
L power:+5V #PWR?
U 1 1 5FC6D7B1
P 9650 900
F 0 "#PWR?" H 9650 750 50  0001 C CNN
F 1 "+5V" H 9665 1073 50  0000 C CNN
F 2 "" H 9650 900 50  0001 C CNN
F 3 "" H 9650 900 50  0001 C CNN
	1    9650 900 
	1    0    0    -1  
$EndComp
Wire Wire Line
	9650 900  9650 1000
$Comp
L Comps:SSD1306 U?
U 1 1 5FC7ABB8
P 9750 2550
F 0 "U?" H 10078 2551 50  0000 L CNN
F 1 "SSD1306" H 10078 2460 50  0000 L CNN
F 2 "" H 9750 2550 50  0001 C CNN
F 3 "" H 9750 2550 50  0001 C CNN
	1    9750 2550
	1    0    0    -1  
$EndComp
Text GLabel 9250 2550 0    50   Input ~ 0
SCL
Text GLabel 9250 2450 0    50   Input ~ 0
SDA
Text GLabel 9250 2650 0    50   Input ~ 0
+7V
$Comp
L power:GND #PWR?
U 1 1 5FC8288E
P 9250 2800
F 0 "#PWR?" H 9250 2550 50  0001 C CNN
F 1 "GND" H 9255 2627 50  0000 C CNN
F 2 "" H 9250 2800 50  0001 C CNN
F 3 "" H 9250 2800 50  0001 C CNN
	1    9250 2800
	1    0    0    -1  
$EndComp
Wire Wire Line
	9250 2450 9350 2450
Wire Wire Line
	9250 2550 9350 2550
Wire Wire Line
	9250 2650 9350 2650
Wire Wire Line
	9250 2800 9250 2750
Wire Wire Line
	9250 2750 9350 2750
$EndSCHEMATC
